%YAML 1.1
%TAG !u! tag:unity3d.com,2011:
--- !u!134 &13400000
PhysicMaterial:
  m_ObjectHideFlags: 0
  m_CorrespondingSourceObject: {fileID: 0}
  m_PrefabInstance: {fileID: 0}
  m_PrefabAsset: {fileID: 0}
  m_Name: Rubber
  dynamicFriction: 0.8
  staticFriction: 1
  bounciness: 0.5
  frictionCombine: 3
  bounceCombine: 0
--- !u!1002 &13400001
EditorExtensionImpl:
  serializedVersion: 6
